lesson5_student.utf8
…
## `summarise()` regrouping output by 'age' (override with `.groups` argument)

fb_fc_by_age_gender

## Warning: `...` is not empty.
## 
## We detected these problematic arguments:
## * `needs_dots`
## 
## These dots only exist to allow future extensions and should be empty.
## Did you misspecify an argument?

## # A tibble: 202 x 5
## # Groups:   age [101]
##      age gender mean_friend_count median_friend_count     n
##    <int> <chr>              <dbl>               <dbl> <int>
##  1    13 female              259.               148     193
##  2    13 male                102.                55     291
##  3    14 female              362.               224     847
##  4    14 male                164.                92.5  1078
##  5    15 female              539.               276    1139
##  6    15 male                201.               106.   1478
##  7    16 female              520.               258.   1238
##  8    16 male                240.               136    1848
##  9    17 female              539.               246.   1236
## 10    17 male                236.               125    2045
## # ... with 192 more rows
…
